"";"Individu";"Mediane_dS";"Mediane_dL"
"1";"Noir_R1";9,51486657678075;10,836515
"2";"Noir_R2";9,86231406620839;10,959605
"3";"PL_sil_noir_1";12,206525;5,120832
"4";"PL_sil_noir_2";12,194465;5,028334
"5";"PR10C1";12,288785;4,424197
