"";"Individu";"Mediane_dS";"Mediane_dL"
"1";"Orange50_R1";13,03638;2,54282
"2";"Orange50_R2";13,16298;2,257127
"3";"Orange60_R1";13,911;2,67712
"4";"Orange60_R2";14,23897;2,768581
"5";"Orange70_R1";14,33908;3,07012
"6";"Orange70_R2";14,06653;2,876436
"7";"PL_sil_orange_1";12,0998027460301;0,879216
"8";"PL_sil_orange_2";12,2066667652263;0,7661791
"9";"POL1C1";5,594741;4,001707
"10";"POL1C2";5,810276;3,659685
"11";"POL1C3";5,529488;3,160905
"12";"POL1C4";5,303822;2,799599
"13";"POL1C5";5,415768;2,244584
"14";"POL1C6";5,38472;1,684283
"15";"POL2C1";4,862826;3,417991
"16";"POL2C2";4,893725;2,955673
"17";"POL2C3";4,725386;2,612386
"18";"POL2C4";4,767981;1,966583
"19";"POL2C5";5,126826;1,514725
"20";"POL2C6";5,24724;1,115748
"21";"POL3C1";4,567784;2,782603
"22";"POL3C2";4,599172;2,369128
"23";"POL3C3";4,510701;1,874802
"24";"POL3C4";4,64042;1,340414
"25";"POL3C5";4,420972;1,093184
"26";"POL3C6";4,82992926079738;0,9648549
"27";"POL4C1";4,821597;2,292032
"28";"POL4C2";5,080301;1,615599
"29";"POL4C3";5,128081;1,129895
"30";"POL4C4";5,000558;1,008919
"31";"POL4C5";5,90637058773832;0,8713649
"32";"POL4C6";6,675577;0,744244
"33";"POL5C1";5,568862;1,500211
"34";"POL5C2";5,986801;1,132272
"35";"POL5C3";6,182912;0,9469478
"36";"POL5C4";7,041872;0,7587432
"37";"POL5C5";7,971825;0,9481825
"38";"POL5C6";9,554918;1,351937
"39";"POL6C1";7,424092;1,0493381
"40";"POL6C2";8,048949;0,8482967
"41";"POL6C3";8,374677;0,8347563
"42";"POL6C4";9,448829;0,9896146
"43";"POL6C5";11,18069;1,553436
"44";"POL6C6";12,02593;2,184543
"45";"POL7C1";9,81087;0,7752118
"46";"POL7C2";9,993725;0,8758131
"47";"POL7C3";11,20347;1,241415
"48";"POL7C4";11,94702;1,912009
"49";"POL7C5";13,0735;2,198753
"50";"POL7C6";13,58215;2,509093
"51";"PR1C1";9,775987;2,038278
"52";"PR1C2";9,743592;1,556128
"53";"PR1C3";9,97278;1,119652
"54";"PR1C4";9,82182;1,008255
"55";"PR1C5";10,64701;0,790695
"56";"PR1C6";11,64019;1,129455
"57";"PR2C1";10,89162;1,456029
"58";"PR2C2";11,09262;1,0799917
"59";"PR2C3";11,17425;0,8494687
"60";"PR2C4";11,3549820070892;0,8693865
"61";"PR2C5";12,3047158739469;1,260485
"62";"PR2C6";13,5099078822728;1,916884
"63";"PR3C1";12,29804;1,086708
"64";"PR3C2";12,85675;1,233255
"65";"PR3C3";12,924929175972;0,8257568
"66";"PR3C4";13,4785919811028;1,39619
"67";"PR3C5";14,2932709285214;2,013324
"68";"PR3C6";15,1321000987018;2,627501
"69";"PR6C1";11,74114;2,400659
"70";"PR6C2";11,83327;1,672606
"71";"PR6C3";11,62589;1,1043255
"72";"PR6C4";11,72392;0,9642005
"73";"PR6C5";11,86875;0,7395624
"74";"PR6C6";12,23485;0,9837604
"75";"PR6C7";13,12495;1,8583
"76";"PR7C1";12,88863;2,423956
"77";"PR7C2";13,01371;1,786437
"78";"PR7C3";12,9923;1,264644
"79";"PR7C4";13,11691;0,9755362
"80";"PR7C5";13,26806;0,7347922
"81";"PR7C6";13,57864;0,9415404
"82";"PR7C7";13,80525;1,615299
"83";"PR8C1";14,33688;2,563274
"84";"PR8C2";14,21698;2,016294
"85";"PR8C3";14,45792;1,332791
"86";"PR8C4";14,43527;1,0617375
"87";"PR8C5";14,89934;0,7931497
"88";"PR8C6";14,77594;0,8483636
"89";"PR8C7";15,12591;1,458375
