"";"Individu";"Mediane_dS";"Mediane_dL"
"1";"Noir_R1";9,6614875;10,720985
"2";"Noir_R2";9,9325745;10,843155
"3";"PL_sil_noir_1";10,875685;5,0657245
"4";"PL_sil_noir_2";10,87325;4,9756535
"5";"PR10C1";10,97576;4,3763065
